@startmindmap

* Documentation
** Technical Requirements
*** standard cloud platform
**** AWS ECS (kubernetes), DB must be Postgresql konform
*** multi-user, multi-tenant
**** Keycloak
***** each tenant is in an own realm
***** each realm can have multiple users
***** registration of a new patient triggers creation of new realm
***** new users can be registered by admin user aka patient
*** five essential characteristics of a cloud service
**** On-demand self service
***** if new account /. patient is made there is a new
****** db schema created
****** a new realm provisioned
******* inlcuding roles, security policies client secrets...
****** a new s3 bucket is created
**** Broad network access
***** Application is accisable via the web
**** resource pooling
***** ??? not shure
**** rapid elasticity
***** we can scale kubernetes in a matter of secounds
****** a new instance takes 7 seconds to start
**** measured service
***** The spring boot application provides a lot of data about its health
****** inluding data source used connections, max connections ect.
****** inluding RAM min, max, current
******* most probably the most important metric, because OOM leads to high CPU and death of the application
****** inluding CPU usage and threads
****** overall 44 metrics about a single isntance
***** also provides an health service which indicates in what stage the application is starting, up, or shutting down
*** 12 factor
**** I Codebase
***** One codebase tracked in revision control, many deploys
****** yes
***** One-to-One mapping of App and code
****** spring boot app in our git. Mapping is 1:1
***** many deploys
****** our docker container which is created from our code base can be deployed multiple times.
**** II Dependencies
***** are specified in maven
****** all versions are specified, no wildcards
****** in order to use the same maven version a maven wrapper is also included in the repository
****** maven includes tooling to avoid dependency leaks
******* so only the java runtime is needed in a version 11 (LTS) or higher
***** are specified in docker files
***** ci file also specifies dependencies
**** III Config
***** configuration is made via kubernetes config maps, this includes createndials for
****** AWS S3
****** (AWS) Postgresql
****** keycloak configuration
***** things what are not in the kubernetes config:
****** health service configuration
****** metric service configuration
***** Configuration is mainly stored in strongly type spring boot properties classes
**** IV Backing Services
***** postgresql is treated as a backing service the connection properties must be supplied via config map
***** keycloak is trated as a backing service, but is currently included via a docker instance and is not configured for cluster mode
**** Build Release Run
***** checking code is automatically run against the ci build.
***** builds on the master produces new docker images
***** no staging atm
***** kubernetes update must be triggered by hand
***** ??? here we stand
**** V Processes
***** the spring boot application is started as a single process
***** it does not have a cache or a dependency to local file storage
****** tomcat may produce tmp files for the file upload
**** VI Port Binding
***** port binding are configured via docker/kubernetes
***** routing layer is provided by kubernetes ???
***** the spring boot application is operating in user space
**** VIII. Concurrency
***** The spring boot app can be deploayed multiple times so a scaling via the process model is also possible
***** Tomcat also has a thread pool which scales request to the webserver via the thread pool model
***** containers are managmed by kubernetes
**** IX. Disposability
***** The spring boot application can started and stopped at a moment notice
***** The application generally waites on already running requests and transaction, but does not accepts new requests
***** if a application dies suddenly
****** transactions get not commited
****** S3 only saves complete files
****** security is handled by keycloak and a death of the applications does not affect logged in users. current state of users is also saved in a db by keycloak, in case keycloak goes down
**** X. Dev/Prod Parity
***** is relativly equal, difference is that database and security on developer machines are deployed via docker compose
***** a test stage could be equally configured, the only difference being the credentials for backing services of course
**** XI. Logs
***** the applications logs all its data vial log4j2.
***** currently the ouput is send to stdoud., but is open for configuration
**** XII. Admin Processes
***** currently we do not have admin processes
***** only the schema migration remotly qualifies as admin process
****** the schema provisioning and migration is made via liquibase for each tenant, but currently integrated into spring boot start up
**** XIII API first
***** The API designs were discussed and were defined between Isabella (frontend) and Philip (backend).
***** Most of the API is available via http://localhost:8080/swagger-ui/index.html?configUrl=/v3/api-docs/swagger-config#/
***** That being said, the api spec on that url does not include the required X-Tenant Header nor the process to get the required OAuth token.
**** XIV Security
***** The application is secured via oauth2 based keycloak with a role based security concept
***** The additional Header X-Tenant defines the tenant, based on that, the correct realm (security) , schema (database) and s3 bucket name is selected
***** not specifiying the tenant leads to an empty realm, the empty public schema and the bucket name simply does not exist.
****** The Application rejects the all calls because the user, if provided, cannot the authenticated or authorized in an empty realm.
**** XV Authentication and Authorization
***** were already discussed in security and is based on OAuth 2
**** XVI Telemetry
***** the Spring boot application provides telemetry endpoints to monitor its health
** Commercial Requirements
*** calculation running costs
*** commercial model to justify the cost

@endmindmap
